{
    "settings": {
        "new_cluster": {
            "spark_version": "9.1.x-scala2.12",
            "aws_attributes": {
                "availability": "SPOT_WITH_FALLBACK",
                "first_on_demand": 1,
                "zone_id": "us-east-1b"
            },
            "node_type_id": "i3.xlarge",
            "spark_env_vars": {
                "PYSPARK_PYTHON": "/databricks/python3/bin/python3"
            },
            "num_workers": 8
        },
        "notebook_task": {
            "notebook_path": "/Users/arthur.aiesec.sm@gmail.com/OK100_load_data_on_datalake_raw"
        },
        "timeout_seconds": 600,
        "email_notifications": {},
        "name": "2.create_stage_order",
        "schedule": {
            "quartz_cron_expression": "15 20 0 * 1-5 ?",
            "timezone_id": "America/Sao_Paulo",
            "pause_status": "UNPAUSED"
        },
        "max_concurrent_runs": 1
    }
}
